^D:\DOCUMENTS\DEI\IM\CMSNIFFER\PROPERTIES\RESOURCES.RESX
^D:\DOCUMENTS\DEI\IM\CMSNIFFER\FORM2.RESX
^D:\DOCUMENTS\DEI\IM\CMSNIFFER\FORM1.RESX
C:\WINDOWS\ASSEMBLY\PUBPOL32.DAT
C:\WINDOWS\MICROSOFT.NET\ASSEMBLY\GAC_MSIL\MICROSOFT.BUILD.TASKS.V4.0\V4.0_4.0.0.0__B03F5F7F11D50A3A\MICROSOFT.BUILD.TASKS.V4.0.DLL
^D:\DOCUMENTS\DEI\IM\CMSNIFFER\MAINGUI.RESX
C:\WINDOWS\ASSEMBLY\PUBPOL32.DAT
C:\WINDOWS\MICROSOFT.NET\ASSEMBLY\GAC_MSIL\MICROSOFT.BUILD.TASKS.V4.0\V4.0_4.0.0.0__B03F5F7F11D50A3A\MICROSOFT.BUILD.TASKS.V4.0.DLL
